assignment week 2
…
2. Clean the Land_cover column to transform it into the correct data type and respect expectations for a percentage

3. Use the relationship between the three cover columns (Snow, Water, Land) to infer missing values where possible and recompute the Total_cover column

knitr::opts_chunk$set(message = FALSE, warning = FALSE)
library(tidyverse)
library(janitor)

read in data

snow <- read_csv("data/processed/snow_cover.csv") %>% 
  clean_names()
snow #checking to make sure it transfered

# A tibble: 42,830 × 12
   site   year date      plot  location snow_cover water_cover land_cover
   <chr> <dbl> <chr>     <chr> <chr>         <dbl> <chr>       <chr>     
 1 barr   2011 29-May-11 brw1  b10              90 0           10        
 2 barr   2011 29-May-11 brw1  b12             100 0           0         
 3 barr   2011 29-May-11 brw1  b2               90 0           10        
 4 barr   2011 29-May-11 brw1  b4              100 0           0         
 5 barr   2011 29-May-11 brw1  b6               95 0           5         
 6 barr   2011 29-May-11 brw1  b8               95 0           5         
 7 barr   2011 29-May-11 brw1  d10              95 0           5         
 8 barr   2011 29-May-11 brw1  d12              90 0           10        
 9 barr   2011 29-May-11 brw1  d2               95 0           5         
10 barr   2011 29-May-11 brw1  d4               95 0           5         
# ℹ 42,820 more rows
# ℹ 4 more variables: total_cover <chr>, observer <chr>, notes <chr>,
#   snow_cover_as_numeric_snow_cover <lgl>
…
#looks like water and land cover are the same in regards to being characters. 
#
#checking if it also has other strings to represent null
snow %>% 
  count(water_cover)

# A tibble: 79 × 2
   water_cover     n
   <chr>       <int>
 1 -              10
 2 .             575
 3 0           18286
 4 0.25            1
 5 1              16
 6 1.25            4
 7 1.75            1
 8 10           5185
 9 100           157
10 11.25           1
# ℹ 69 more rows
…
#removing non-numeric characters first
snow <- snow %>%
  mutate(across(ends_with("_cover"), ~ifelse(.x == "-", NA, .x))) %>% #remove "-"
  mutate(across(ends_with("_cover"), ~ifelse(.x == ".", NA, .x))) %>% #remove "."
  mutate(water_cover = ifelse(water_cover == "n/a", NA, water_cover),#remove NAs
         water_cover = ifelse(water_cover == "unk", NA, water_cover),# remove unknown char
         (water_cover = ifelse(water_cover == "<1", "0", water_cover)),# remove values less than 0
          water_cover = as.numeric(water_cover)
         )

#check if it worked again
snow %>% 
  count(water_cover) #it did!!

# A tibble: 75 × 2
   water_cover     n
         <dbl> <int>
 1        0    18286
 2        0.25     1
 3        1       16
 4        1.25     4
 5        1.75     1
 6        2       18
 7        2.5      3
 8        3       12
 9        3.75     4
10        4        1
# ℹ 65 more rows
…
#looks like land is still character 
#
#checking if it also has other strings to represent null
snow %>% 
  count(land_cover) #there are some negative numbers?! Have to remove them

# A tibble: 99 × 2
   land_cover     n
   <chr>      <int>
 1 -100           1
 2 -298           1
 3 0           8030
 4 1             10
 5 1.5            1
 6 10          1252
 7 100         6921
 8 11.25          2
 9 12             1
10 14             1
# ℹ 89 more rows
…
snow <- snow %>% 
  filter(land_cover >= 0) #there are 2 with lexx than 0! need to fix this rn

Total cover

#check that it is also only 100, then convert

#convert to numeric
snow$total_cover <- as.integer(snow$total_cover)

#check any 100s
snow %>% 
  filter(total_cover > 100) #we have a couple.

# A tibble: 22 × 13
   site   year date      plot  location snow_cover water_cover land_cover
   <chr> <dbl> <chr>     <chr> <chr>         <dbl>       <dbl>      <dbl>
 1 cari   2011 11-Jun-11 5b    19               35          30         45
 2 cari   2011 11-Jun-11 5b    21                5          55         45
 3 cari   2011 11-Jun-11 5b    22               10          30         70
 4 prba   2011 7-Jun-11  9     35               20          40         50
 5 prba   2011 14-Jun-11 5     4                 5          15         85
 6 barr   2014 8-Jun-14  brw0  f12              75           0         30
 7 barr   2014 8-Jun-14  brw0  h4               75           5         25
 8 barr   2014 4-Jun-14  brw2  d8               65           0         45
 9 barr   2014 6-Jun-14  brw2  b2               65           0         45
10 barr   2014 6-Jun-14  brw2  h8               65           0         45
# ℹ 12 more rows
# ℹ 5 more variables: total_cover <int>, observer <chr>, notes <chr>,
#   snow_cover_as_numeric_snow_cover <lgl>,
#   `(water_cover = ifelse(water_cover == "<1", "0", water_cover))` <chr>
…
